{
    "items": [
        {
            "id": "2-434",
            "attainment_id": 2,
            "assessment_term_id": 434,
            "assessment_term_type": "term22",
            "assessment_term_date": "2021-04-21",
            "attainment_name": "Drama (Dr)",
            "attainment_short_name": "Dr",
            "attainment_is_default": true,
            "attainment_sort": 16,
            "setting_id": 17,
            "assessment_term": {
                "assessment_term_id": 434,
                "year_group_id": 5,
                "type": "term22",
                "academic_year": 2020,
                "date_end": "2021-04-21",
                "write_report": 0,
                "report_default_text": "",
                "report_date_start": null,
                "report_date_end": null,
                "gcse_prediction_data_entry": 0,
                "data_entry_date_start": "2021-02-24",
                "data_entry_date_end": "2021-04-21",
                "resultset_id": 51,
                "progress_setting": {
                    "calc_based_on": "",
                    "source_assessment_term_id": null,
                    "include_students_from_year_group_ids": [],
                    "student_ks2_fine_value_attribute_name": "fine_value"
                },
                "created_at": null,
                "created_by": null,
                "updated_at": null,
                "updated_by": null,
                "status": "published",
                "queue_job_id": null,
                "results_updated_at": "2021-04-19 23:57:45"
            },
            "setting": {
                "group_name": "Non-Ebacc (Open /3)",
                "main_group": "Open",
                "sub_group": "other_qualifications"
            }
        },
        {
            "id": "3-434",
            "attainment_id": 3,
            "assessment_term_id": 434,
            "assessment_term_type": "term22",
            "assessment_term_date": "2021-04-21",
            "attainment_name": "English (En)",
            "attainment_short_name": "En",
            "attainment_is_default": true,
            "attainment_sort": 1,
            "setting_id": 4,
            "assessment_term": {
                "assessment_term_id": 434,
                "year_group_id": 5,
                "type": "term22",
                "academic_year": 2020,
                "date_end": "2021-04-21",
                "write_report": 0,
                "report_default_text": "",
                "report_date_start": null,
                "report_date_end": null,
                "gcse_prediction_data_entry": 0,
                "data_entry_date_start": "2021-02-24",
                "data_entry_date_end": "2021-04-21",
                "resultset_id": 51,
                "progress_setting": {
                    "calc_based_on": "",
                    "source_assessment_term_id": null,
                    "include_students_from_year_group_ids": [],
                    "student_ks2_fine_value_attribute_name": "fine_value"
                },
                "created_at": null,
                "created_by": null,
                "updated_at": null,
                "updated_by": null,
                "status": "published",
                "queue_job_id": null,
                "results_updated_at": "2021-04-19 23:57:45"
            },
            "setting": {
                "group_name": "English",
                "main_group": "Basic",
                "sub_group": "english"
            }
        },
        {
            "id": "5-434",
            "attainment_id": 5,
            "assessment_term_id": 434,
            "assessment_term_type": "term22",
            "assessment_term_date": "2021-04-21",
            "attainment_name": "History (Hi)",
            "attainment_short_name": "Hi",
            "attainment_is_default": true,
            "attainment_sort": 7,
            "setting_id": 9,
            "assessment_term": {
                "assessment_term_id": 434,
                "year_group_id": 5,
                "type": "term22",
                "academic_year": 2020,
                "date_end": "2021-04-21",
                "write_report": 0,
                "report_default_text": "",
                "report_date_start": null,
                "report_date_end": null,
                "gcse_prediction_data_entry": 0,
                "data_entry_date_start": "2021-02-24",
                "data_entry_date_end": "2021-04-21",
                "resultset_id": 51,
                "progress_setting": {
                    "calc_based_on": "",
                    "source_assessment_term_id": null,
                    "include_students_from_year_group_ids": [],
                    "student_ks2_fine_value_attribute_name": "fine_value"
                },
                "created_at": null,
                "created_by": null,
                "updated_at": null,
                "updated_by": null,
                "status": "published",
                "queue_job_id": null,
                "results_updated_at": "2021-04-19 23:57:45"
            },
            "setting": {
                "group_name": "Humanities",
                "main_group": "Ebacc",
                "sub_group": "other_ebacc_qualifications"
            }
        },
        {
            "id": "7-434",
            "attainment_id": 7,
            "assessment_term_id": 434,
            "assessment_term_type": "term22",
            "assessment_term_date": "2021-04-21",
            "attainment_name": "Maths (Ma)",
            "attainment_short_name": "Ma",
            "attainment_is_default": true,
            "attainment_sort": 2,
            "setting_id": 3,
            "assessment_term": {
                "assessment_term_id": 434,
                "year_group_id": 5,
                "type": "term22",
                "academic_year": 2020,
                "date_end": "2021-04-21",
                "write_report": 0,
                "report_default_text": "",
                "report_date_start": null,
                "report_date_end": null,
                "gcse_prediction_data_entry": 0,
                "data_entry_date_start": "2021-02-24",
                "data_entry_date_end": "2021-04-21",
                "resultset_id": 51,
                "progress_setting": {
                    "calc_based_on": "",
                    "source_assessment_term_id": null,
                    "include_students_from_year_group_ids": [],
                    "student_ks2_fine_value_attribute_name": "fine_value"
                },
                "created_at": null,
                "created_by": null,
                "updated_at": null,
                "updated_by": null,
                "status": "published",
                "queue_job_id": null,
                "results_updated_at": "2021-04-19 23:57:45"
            },
            "setting": {
                "group_name": "Maths",
                "main_group": "Basic",
                "sub_group": "mathematics"
            }
        },
        {
            "id": "11-434",
            "attainment_id": 11,
            "assessment_term_id": 434,
            "assessment_term_type": "term22",
            "assessment_term_date": "2021-04-21",
            "attainment_name": "Religious Study SC (Rs)",
            "attainment_short_name": "Rs|SC",
            "attainment_is_default": true,
            "attainment_sort": 15,
            "setting_id": 17,
            "assessment_term": {
                "assessment_term_id": 434,
                "year_group_id": 5,
                "type": "term22",
                "academic_year": 2020,
                "date_end": "2021-04-21",
                "write_report": 0,
                "report_default_text": "",
                "report_date_start": null,
                "report_date_end": null,
                "gcse_prediction_data_entry": 0,
                "data_entry_date_start": "2021-02-24",
                "data_entry_date_end": "2021-04-21",
                "resultset_id": 51,
                "progress_setting": {
                    "calc_based_on": "",
                    "source_assessment_term_id": null,
                    "include_students_from_year_group_ids": [],
                    "student_ks2_fine_value_attribute_name": "fine_value"
                },
                "created_at": null,
                "created_by": null,
                "updated_at": null,
                "updated_by": null,
                "status": "published",
                "queue_job_id": null,
                "results_updated_at": "2021-04-19 23:57:45"
            },
            "setting": {
                "group_name": "Non-Ebacc (Open /3)",
                "main_group": "Open",
                "sub_group": "other_qualifications"
            }
        },
        {
            "id": "13-434",
            "attainment_id": 13,
            "assessment_term_id": 434,
            "assessment_term_type": "term22",
            "assessment_term_date": "2021-04-21",
            "attainment_name": "Business Studies (Bs)",
            "attainment_short_name": "Bs",
            "attainment_is_default": true,
            "attainment_sort": 25,
            "setting_id": null,
            "assessment_term": {
                "assessment_term_id": 434,
                "year_group_id": 5,
                "type": "term22",
                "academic_year": 2020,
                "date_end": "2021-04-21",
                "write_report": 0,
                "report_default_text": "",
                "report_date_start": null,
                "report_date_end": null,
                "gcse_prediction_data_entry": 0,
                "data_entry_date_start": "2021-02-24",
                "data_entry_date_end": "2021-04-21",
                "resultset_id": 51,
                "progress_setting": {
                    "calc_based_on": "",
                    "source_assessment_term_id": null,
                    "include_students_from_year_group_ids": [],
                    "student_ks2_fine_value_attribute_name": "fine_value"
                },
                "created_at": null,
                "created_by": null,
                "updated_at": null,
                "updated_by": null,
                "status": "published",
                "queue_job_id": null,
                "results_updated_at": "2021-04-19 23:57:45"
            },
            "setting": null
        },
        {
            "id": "17-434",
            "attainment_id": 17,
            "assessment_term_id": 434,
            "assessment_term_type": "term22",
            "assessment_term_date": "2021-04-21",
            "attainment_name": "Spanish (Sp)",
            "attainment_short_name": "Sp",
            "attainment_is_default": true,
            "attainment_sort": 9,
            "setting_id": 8,
            "assessment_term": {
                "assessment_term_id": 434,
                "year_group_id": 5,
                "type": "term22",
                "academic_year": 2020,
                "date_end": "2021-04-21",
                "write_report": 0,
                "report_default_text": "",
                "report_date_start": null,
                "report_date_end": null,
                "gcse_prediction_data_entry": 0,
                "data_entry_date_start": "2021-02-24",
                "data_entry_date_end": "2021-04-21",
                "resultset_id": 51,
                "progress_setting": {
                    "calc_based_on": "",
                    "source_assessment_term_id": null,
                    "include_students_from_year_group_ids": [],
                    "student_ks2_fine_value_attribute_name": "fine_value"
                },
                "created_at": null,
                "created_by": null,
                "updated_at": null,
                "updated_by": null,
                "status": "published",
                "queue_job_id": null,
                "results_updated_at": "2021-04-19 23:57:45"
            },
            "setting": {
                "group_name": "Languages",
                "main_group": "Ebacc",
                "sub_group": "other_ebacc_qualifications"
            }
        },
        {
            "id": "35-434",
            "attainment_id": 35,
            "assessment_term_id": 434,
            "assessment_term_type": "term22",
            "assessment_term_date": "2021-04-21",
            "attainment_name": "English Lit (En)",
            "attainment_short_name": "En|Lit",
            "attainment_is_default": false,
            "attainment_sort": 1,
            "setting_id": 4,
            "assessment_term": {
                "assessment_term_id": 434,
                "year_group_id": 5,
                "type": "term22",
                "academic_year": 2020,
                "date_end": "2021-04-21",
                "write_report": 0,
                "report_default_text": "",
                "report_date_start": null,
                "report_date_end": null,
                "gcse_prediction_data_entry": 0,
                "data_entry_date_start": "2021-02-24",
                "data_entry_date_end": "2021-04-21",
                "resultset_id": 51,
                "progress_setting": {
                    "calc_based_on": "",
                    "source_assessment_term_id": null,
                    "include_students_from_year_group_ids": [],
                    "student_ks2_fine_value_attribute_name": "fine_value"
                },
                "created_at": null,
                "created_by": null,
                "updated_at": null,
                "updated_by": null,
                "status": "published",
                "queue_job_id": null,
                "results_updated_at": "2021-04-19 23:57:45"
            },
            "setting": {
                "group_name": "English",
                "main_group": "Basic",
                "sub_group": "english"
            }
        },
        {
            "id": "43-434",
            "attainment_id": 43,
            "assessment_term_id": 434,
            "assessment_term_type": "term22",
            "assessment_term_date": "2021-04-21",
            "attainment_name": "Chemistry Db Sci (Ch)",
            "attainment_short_name": "Ch|Db Sci",
            "attainment_is_default": false,
            "attainment_sort": 5,
            "setting_id": null,
            "assessment_term": {
                "assessment_term_id": 434,
                "year_group_id": 5,
                "type": "term22",
                "academic_year": 2020,
                "date_end": "2021-04-21",
                "write_report": 0,
                "report_default_text": "",
                "report_date_start": null,
                "report_date_end": null,
                "gcse_prediction_data_entry": 0,
                "data_entry_date_start": "2021-02-24",
                "data_entry_date_end": "2021-04-21",
                "resultset_id": 51,
                "progress_setting": {
                    "calc_based_on": "",
                    "source_assessment_term_id": null,
                    "include_students_from_year_group_ids": [],
                    "student_ks2_fine_value_attribute_name": "fine_value"
                },
                "created_at": null,
                "created_by": null,
                "updated_at": null,
                "updated_by": null,
                "status": "published",
                "queue_job_id": null,
                "results_updated_at": "2021-04-19 23:57:45"
            },
            "setting": null
        },
        {
            "id": "54-434",
            "attainment_id": 54,
            "assessment_term_id": 434,
            "assessment_term_type": "term22",
            "assessment_term_date": "2021-04-21",
            "attainment_name": "Physics Db Sci (Py)",
            "attainment_short_name": "Py|Db Sci",
            "attainment_is_default": false,
            "attainment_sort": 6,
            "setting_id": null,
            "assessment_term": {
                "assessment_term_id": 434,
                "year_group_id": 5,
                "type": "term22",
                "academic_year": 2020,
                "date_end": "2021-04-21",
                "write_report": 0,
                "report_default_text": "",
                "report_date_start": null,
                "report_date_end": null,
                "gcse_prediction_data_entry": 0,
                "data_entry_date_start": "2021-02-24",
                "data_entry_date_end": "2021-04-21",
                "resultset_id": 51,
                "progress_setting": {
                    "calc_based_on": "",
                    "source_assessment_term_id": null,
                    "include_students_from_year_group_ids": [],
                    "student_ks2_fine_value_attribute_name": "fine_value"
                },
                "created_at": null,
                "created_by": null,
                "updated_at": null,
                "updated_by": null,
                "status": "published",
                "queue_job_id": null,
                "results_updated_at": "2021-04-19 23:57:45"
            },
            "setting": null
        }
    ],
    "_links": {
        "self": {
            "href": "http://inspinia-pamv3.local/api/teacher/progress/v1/courses/search?expand=setting%2Cassessment_term&filter%5Bassessment_term_id%5D=434&per-page=10&page=1"
        },
        "first": {
            "href": "http://inspinia-pamv3.local/api/teacher/progress/v1/courses/search?expand=setting%2Cassessment_term&filter%5Bassessment_term_id%5D=434&per-page=10&page=1"
        },
        "last": {
            "href": "http://inspinia-pamv3.local/api/teacher/progress/v1/courses/search?expand=setting%2Cassessment_term&filter%5Bassessment_term_id%5D=434&per-page=10&page=5"
        },
        "next": {
            "href": "http://inspinia-pamv3.local/api/teacher/progress/v1/courses/search?expand=setting%2Cassessment_term&filter%5Bassessment_term_id%5D=434&per-page=10&page=2"
        }
    },
    "_meta": {
        "totalCount": 43,
        "pageCount": 5,
        "currentPage": 1,
        "perPage": 10
    }
}